%YAML 1.1
%TAG !u! tag:unity3d.com,2011:
--- !u!1045 &1
EditorBuildSettings:
  m_ObjectHideFlags: 0
  serializedVersion: 2
  m_Scenes:
  - enabled: 1
    path: Assets/Levels/Menu/Scenes/Menu.unity
    guid: a75c888f3b646fd48ae23993544a8392
  - enabled: 1
    path: Assets/Levels/Level 1/Scenes/Level 1.unity
    guid: b56095c99050f5246af2d2528eeee306
  m_configObjects: {}
